hw_5/transcript
# vsim -c hw5_q1_tb 
# Start time: 10:02:25 on Feb 19,2020
# ** Note: (vsim-3813) Design is being optimized due to module recompilation...
# //  ModelSim SE-64 10.7c Aug 17 2018Linux 3.10.0-1062.12.1.el7.x86_64
# //
# //  Copyright 1991-2018 Mentor Graphics Corporation
# //  All Rights Reserved.
# //
# //  ModelSim SE-64 and its associated documentation contain trade
# //  secrets and commercial or financial information that are the property of
# //  Mentor Graphics Corporation and are privileged, confidential,
# //  and exempt from disclosure under the Freedom of Information Act,
# //  5 U.S.C. Section 552. Furthermore, this information
# //  is prohibited from disclosure under the Trade Secrets Act,
# //  18 U.S.C. Section 1905.
# //
# Loading work.hw5_q1_tb(fast)
#                    0 dir:1, rst_n:0, count:xxxx
#                    5 dir:1, rst_n:0, count:0000
#                   10 dir:1, rst_n:1, count:0000
#                   15 dir:1, rst_n:1, count:0001
#                   25 dir:1, rst_n:1, count:0010
#                   35 dir:1, rst_n:1, count:0011
#                   45 dir:1, rst_n:1, count:0100
#                   55 dir:1, rst_n:1, count:0101
#                   65 dir:1, rst_n:1, count:0110
#                   75 dir:1, rst_n:1, count:0111
#                   85 dir:1, rst_n:1, count:1000
#                   95 dir:1, rst_n:1, count:1001
#                  105 dir:1, rst_n:1, count:1010
#                  115 dir:1, rst_n:1, count:1011
#                  125 dir:1, rst_n:1, count:1100
#                  135 dir:1, rst_n:1, count:1101
#                  145 dir:1, rst_n:1, count:1110
#                  155 dir:1, rst_n:1, count:1111
#                  200 dir:0, rst_n:1, count:1111
#                  205 dir:0, rst_n:1, count:1110
#                  215 dir:0, rst_n:1, count:1101
#                  225 dir:0, rst_n:1, count:1100
#                  235 dir:0, rst_n:1, count:1011
#                  245 dir:0, rst_n:1, count:1010
#                  255 dir:0, rst_n:1, count:1001
#                  265 dir:0, rst_n:1, count:1000
#                  275 dir:0, rst_n:1, count:0111
#                  285 dir:0, rst_n:1, count:0110
#                  295 dir:0, rst_n:1, count:0101
#                  305 dir:0, rst_n:1, count:0100
#                  315 dir:0, rst_n:1, count:0011
#                  325 dir:0, rst_n:1, count:0010
#                  335 dir:0, rst_n:1, count:0001
#                  345 dir:0, rst_n:1, count:0000
# ** Note: $stop    : hw5_q1_tb.v(23)
#    Time: 400 ns  Iteration: 0  Instance: /hw5_q1_tb
# Break at hw5_q1_tb.v line 23
# Stopped at hw5_q1_tb.v line 23
# End time: 10:02:44 on Feb 19,2020, Elapsed time: 0:00:19
# Errors: 0, Warnings: 0
